;Revised by Pink Gold Peach.

#SPC
{
	#title "Magnificent Magma Mural"
	#author "Kipernal"
	#comment "Fire Level 2"
	#game "SMW Central Production 2"
}

#samples
{
	#optimized
	"CCymbal.brr"
	"CLava Bubble.brr"
	"CLava Splatter.brr"
        "CChoir.brr"
        "sitar.brr"
"sstrings.brr"
}
#instruments
{
"sitar.brr" $FF $EE $B8 $05 $00       ;@30
"sstrings.brr" $8E $E8 $00 $02 $7d    ;@31
}


#0 w160 

$EF $FC $36 $36
$F1 $06 $B2 $00

@4 y9 $E5$00$03$16 $ED $29 $A1 t39 o2v220 c4 $EF $FC $46 $46 ^4^2^1
  ^1^1
/  c1>d+1
f1g1
   <c1>d+1
[f1g1<c1>d+1]5
f1g1

#1
@4 $E5$00$03$16 $ED $29 $A1 o3v220 c1^1
^1^1
/<
[>c1<d+1f1g1]7

#2 o3
r4^8@23v186 c16 @23v157c16   @23v128c16 @23v99c4^16 @23v186c16 @23v157c16  @23v128c16 @23v99c4^16 @23v186c16 @23v157c16  @23v128c16 @23v99c4^16 @23v186c16 @23v157c16
(4)[@23v128 c16 @23 v99c4^16 @23v186c16 @23v157c16  @23v128c16 @23v99c4^16 @23v186c16 @23v157c16  @23v128c16 @23v99c4^16 @23v186c16 @23v157c16  @23v128c16 @23v99c4^16 @23v186c16 @23v157c16]
/
[@23  v128 c16@23  v99 c4^16@23  v186 c16@23  v157 c16@23  v128 c16@23  v99 c4^16@23  v186 c16@23  v157 c16@23  v128 c16@23  v99 c4^16@23  v186 c16@23  v157 c16@23  v128 c16@23  v99 c4^16@23  v186 c16@23  v157 c16]4
@3v255 $FA$03$30 y11 a+8g8f8d+16f8g4^8^16a+8g8a+8>c16d+8c8^16<a+16>c32<a+32g16f16
d+8f8g8a+16>c8d+4^8^16<f8g8>d+8f16d+8c8^16<a+16>c8^16 $FA$03$00
@0 ("CCymbal.brr", $04) $ED $6C $B0 <g+4^8@23  v186 c16@23  v157 c16@23  v128 c16@23  v99 c4^16@23  v186 c16@23  v157 c16@23  v128 c16@23  v99 c4^16@23  v186 c16@23  v157 c16@23  v128 c16@23  v99 c4^16@23  v186 c16@23  v157 c16
@23  v128 c16@23  v99 c4^16@23  v186 c16@23  v157 c16@23  v128 c16@23  v99 c4^16@23  v186 c16@23  v157 c16@23  v128 c16@23  v99 c4^16@23  v186 c16@23  v157 c16@23  v128 c16@23  v99 c8^16@29 v255 c16@29  v128 c16@23  v186 c16@23  v157 c16
@0 ("CCymbal.brr", $04) $ED $6C $B0 v255 g+4^8@23  v186 c16@23  v157 c16@23  v128 c16@23  v99 c4^16@23  v186 c16@23  v157 c16@23  v128 c16@23  v99 c4^16@23  v186 c16@23  v157 c16@23  v128 c16@23  v99 c4^16@23  v186 c16@23  v157 c16
@23  v128 c16@23  v99 c4^16@23  v186 c16@23  v157 c16@23  v128 c16@23  v99 c4^16@23  v186 c16@23  v157 c16@23  v128 c16@23  v99 c4^16@23  v186 c16@23  v157 c16@0 ("CCymbal.brr", $04) $ED $72 $E0  v220 g+2
v255 y11 @11 ("CChoir.brr", $06) $ED $24 $C5 $EE $10   >f+1^1
g1b1 y10
@0 ("CCymbal.brr", $04) $ED $6C $B0 <g+4^8@23  v186 c16@23  v157 c16@23  v128 c16@23  v99 c4^16@23  v186 c16@23  v157 c16@23  v128 c16@23  v99 c4^16@23  v186 c16@23  v157 c16@23  v128 c16@23  v99 c4^16@23  v186 c16@23  v157 c16
(4)

#3 $FA$03$30
@21 o3v215 c32@21 c32@21 c32@21 c32@21 c16@21 c16@29 v255 c16@21 v215 c4@21 c32@21 c32@21 c16@21 c16@29 v255 c16@21 v215 c8^16(1)[@21 c32@21 c32@21 c32@21 c32@21 c16@21 c16@29 v255 c16@21 v215 c4@21 c32@21 c32@21 c16@21 c16@29 v255 c16@21 v215 c8^16]
(1)2
/
(1)11

@21 c32@21 c32@21 c32@21 c32@21 c16@21 c16@29 v255 c16@21 v215 c4@21 c32@21 c32@21 c16@21 c16@29 v255 c16@21 v215 c16@29 v255 c32@29 c32@29 c32@29 c32
@21 v215 c32@21 c32@21 c32@21 c32@21 c16@21 c16@29 v255 c16@21 v215 c4@21 c32@21 c32@21 c16@21 c16@29 v255 c16@21 v215 c8^16(1)
(1)@21 c32@21 c32@21 c32@21 c32@21 c16@21 c16@29 v255 c16@21 v215 c8^16@29  v99 c16@29  v128 c32@21 v215 c32@29  v157 c16@29  v186 c16@29  v243 c16@29  v157 c16@29  v128 c16@29  v99 c16
@21 v215 c32@21 c32@21 c32@21 c32@21 c16@21 c16@29 v255 c16@21 v215 c4@21 c32@21 c32@21 c16@21 c16@29 v255 c16@21 v215 c8^16(1)
(1)(1)
@11 y9 ("CChoir.brr", $06) $ED $24 $C5 $EE $10   v255 b1a1
b1b1 y10
@21 v215 c32@21 c32@21 c32@21 c32@21 c16@21 c16@29 v255 c16@21 v215 c4@21 c32@21 c32@21 c16@21 c16@29 v255 c16@21 v215 c8^16(1)
(1)(1)

#7
r1^1
@11 ("CLava Bubble.brr", $02) $ED $7F $E0  o2 (3)[v255f4^8^32>d4 v136 a+8^32v255 a+8@15 ("CLava Splatter.brr", $02) $ED $7F $E0  <g+4^16@11 ("CLava Bubble.brr", $02) $ED $7F $E0  g+4^32 v200 o4c+8 v136 <g8^16^32<v255 g+8]
/^8^32g+8f4^8^32>d4 v136 a+8^32v255 a+8@15 ("CLava Splatter.brr", $02) $ED $7F $E0  <g+4^16@11 ("CLava Bubble.brr", $02) $ED $7F $E0  g+4^32 v200 o4c+8 v136 <g16

@30 v113y14> c16  v93y6c16v0 ^2^16  v200y14 d+16  v180y6d+16  v157y14d+16  v136y6d+16  v113y14d+16  v93y6d+16v0 ^4^16 v113y14<g16  v93y6g16v0 ^4^8  v113y14> c16  v93y6c16

@11 ("CLava Bubble.brr", $02) $ED $7F $E0  o2(3)
(3)3
>c4^8^32c4 v136 f+8^32v255 f+8@15 ("CLava Splatter.brr", $02) $ED $7F $E0  c4^16@11 ("CLava Bubble.brr", $02) $ED $7F $E0  c4^32 v200 a8 v136 d+8^16^32v255 c8
<(3)2
f32 v252 ^32 v249 ^32 v246 ^32 v243 ^32 v241 ^32 v238 ^32 v235 ^32 v232 ^32 v229 ^32 v226 ^32 v223 ^32 v220 ^32 v217 >d32 v215 ^32 v212 ^32 v209 ^32 v206 ^32 v203 ^32 v200 ^32 v197 ^32 v113 a+16^32 v110 ^16 v180 a+32 v177 ^32 v174 ^32 v171 ^32@15 ("CLava Splatter.brr", $02) $ED $7F $E0   v168 <g+32 v165 ^32 v162 ^32 v160 ^32 v157 ^32 v154 ^32 v151 ^32 v148 ^32 v145 ^32 v142 ^32@11 ("CLava Bubble.brr", $02) $ED $7F $E0   v139 g+32 v136 ^32 v134 ^32 v131 ^32 v128 ^32 v125 ^32 v122 ^32 v119 ^32 v116 ^32 v102 o4c+32 v99 ^32 v96 ^32 v93 ^32 v82 <g16 v79 ^16^32 v76 ^16 v82 <g+32 v79 ^32 v76 ^32 v73 ^32

y10 @0 ("CCymbal.brr", $04) $ED $6C $B0 >v255 g+2^16 @21v215c32 @21c32 @21c16 @21c16 @29v255c16 @21v215c8^16(1)
 @21c32 @21c32 @21c32 @21c32 @21c16 @21c16 @29v255c16 @21v215c4 @21c32 @21c32 @21c16 @21c16 @29v255c16 @21v215c8^16 @21c32 @21c32 @21c32 @21c32 @21c16 @21c16 @29v255c16 @21v215c4 @21c32 @21c32 @21c16 @21c16 @29v255c16 @21v215c16 @29v255 @29c32 @29c32 @29c32 @29c32

@11 ("CLava Bubble.brr", $02) $ED $7F $E0  c4^8^32c4 v136 f+8^32v255 f+8@15 ("CLava Splatter.brr", $02) $ED $7F $E0  c4^16@11 ("CLava Bubble.brr", $02) $ED $7F $E0  c4^32 v200 a8 v136 d+8^16^32v255 c8
<(3)

#5
@11 ("CLava Bubble.brr", $02) $ED $7F $E0  q7F v255f4^8^32>d4 v136 a+8^32v255 a+8@15 ("CLava Splatter.brr", $02) $ED $7F $E0  <g+4^16@11 ("CLava Bubble.brr", $02) $ED $7F $E0  g+4^32 v200 o4c+8 v136 <g8^16^32<v255 g+8 ; (3)
@11 y9 ("CChoir.brr", $06) $ED $24 $C5 $EE $10 o4e1^1

/@30  y12 >
v235 d+16f16d16<a+16>c16<a+32>c32<g32d+32f32g32  
v203g16   
v183y8g16   
v160y12g16   
v140y8g16   
v117y12g16   
v96y8g16   
v83y12g16   
v63y8g8   

v235y12g32   a+32f16d+16f16d+16f16d+16g16c+16   
v203c16 
v183y8c16 
v160y12c16 
v140y8c16 
v117y12c16 
v96y8c16



v235y12f16 d+16f16d+16f16g+32a+32f16d+16c16d+16  
v183y8d+16  

v235y12c16<a+16a+32>c32<a+16d+16g16  
v183y8g16  
v160y12g16  
v140y8g16  
v117y12g16  
v96y8g16  

v235y12a+16  
v183y8a+16  

v235y12>c16  
v183y8c16  
v160y12c16  
v140y8c16  
v117y12c16 
v96y8c16  

v235y10d+16
v183y8d+16

v235c2^4^8 d+32f32d32<a+32>d+2^4d16 v209 d16v255 f16 v209 f16
v235 g2^4^8f32g32d+32c32g2a+4f4
@31 v255y7c2^4^8d+32f32d32<a+32>d+2^4d16 v209 d16v255 f16 v209 f16
v255 g2^4^8f32g32d+32c32g2a+4f4
y9 @11 ("CChoir.brr", $06) $ED $24 $C5 $EE $10 e1^1
f+1^2v255 g+2

y12 v225 @30  g4c8^16d+8g8^16f16g16d+16c16d+8^16g8^16f8d+8f16c8^16<a+8
>c4d+8^16f8g8^16f16d+16c16d+16f4^8g8a+8g16f8d+16f16g16
g4c8^16d+8g8^16f16g16d+16c16d+8^16g8^16f8d+8f16c8^16<a+8
>c8^16d+8^16<a+8>f8^16g8^16a+8>c4^8<a+32>c32<g32f32>c2
y9 @11 ("CChoir.brr", $06) $ED $24 $C5 $EE $10 <e1^1
f+1^2v255 g+2

#6
r1^1
^8^32@11 ("CLava Bubble.brr", $02) $ED $7F $E0  o2v255 g+8f4^8^32>d4 v136 a+8^32v255 a+8@15 ("CLava Splatter.brr", $02) $ED $7F $E0  <g+4^16@11 ("CLava Bubble.brr", $02) $ED $7F $E0  g+4^32 v200 o4c+8 v136 <g16
/^1^1
^8^32<(2)[v255 g+8f4^8^32>d4 v136 a+8^32v255 a+8@15 ("CLava Splatter.brr", $02) $ED $7F $E0  <g+4^16@11 ("CLava Bubble.brr", $02) $ED $7F $E0  g+4^32 v200 o4c+8 v136 <g16
^8^32]<(2)<v255 g+8f4^8^32>d4 v136 a+8^32v255 a+8@15 ("CLava Splatter.brr", $02) $ED $7F $E0  <g+4^16@11 ("CLava Bubble.brr", $02) $ED $7F $E0  g+4^32 v200 o4c+8 v136 <g16

[ @23v128c16  
  @23v99c4^16  
  @23v186c16  
  @23v157c16  
  @23v128c16  
  @23v99c4^16  
  @23v186c16  
  @23v157c16  
  @23v128c16  
  @23v99c4^16  
  @23v186c16  
  @23v157c16  
  @23v128 c16  
  @23v99c4^16  
  @23v186c16  
  @23v157c16]2

 @23v128c16  @23v99c8^16^32 @11 ("CLava Bubble.brr", $02) $ED $7F $E0  v255 c4^8^32c4 v136 f+8^32v255 f+8@15 ("CLava Splatter.brr", $02) $ED $7F $E0  c4^16@11 ("CLava Bubble.brr", $01) $ED $7F $E0  c4^32 v200 a8 v136 d+16
^4^32<v255 f4^8^32>d4 v136 a+8^32v255 a+8@15 ("CLava Splatter.brr", $02) $ED $7F $E0  <g+4^16@11 ("CLava Bubble.brr", $02) $ED $7F $E0  g+4^32 v200 o4c+8 v136 <g16
 @23v128c16  @23v99 c8^16^32@11 ("CLava Bubble.brr", $02) $ED $7F $E0  <v255 f4^8^32>d4 v136 a+8^32v255 a+8@15 ("CLava Splatter.brr", $02) $ED $7F $E0  <g+4^16@11 ("CLava Bubble.brr", $01) $ED $7F $E0  g+4^32 v200 o4c+8 v136 <g16
 v255 ^32 v252 ^32 v249 ^32 v246 ^32 v243 ^32 v241 <g+32 v238 ^32 v235 ^32 v232 ^32 v229 f32 v226 ^32 v223 ^32 v220 ^32 v217 ^32 v215 ^32 v212 ^32 v209 ^32 v206 ^32 v203 ^32 v200 ^32 v197 ^32 v194 ^32 v191 >d32 v189 ^32 v186 ^32 v183 ^32 v180 ^32 v177 ^32 v174 ^32 v171 ^32 v105 a+16^32 v102 ^16 v154 a+32 v151 ^32 v148 ^32 v145 ^32@15 ("CLava Splatter.brr", $02) $ED $7F $E0   v142 <g+32 v139 ^32 v136 ^32 v134 ^32 v131 ^32 v128 ^32 v125 ^32 v122 ^32 v119 ^32 @23   v128 >c16  v99 c4^16  v186 c16  v157 c16
 @21  v215 c32 @21  c32 @21  c32 @21  c32 @21  c16 @21  c16 @29  v255 c16 @21  v215 c16 @23   v186 c16  v157 @23c16  v128 @23c16  v99 @23c4^16  v186 @23c16  v157 @23c16  v128 @23c16  v99 @23c4^16  v186 @23c16  v157 @23c16  v128 @23c16  v99 @23c4^16  v186 @23c16  v157 @23c16

 @23   v128 c16  v99 @23c4^16  v186 @23c16  v157 @23c16  v128 @23c16  v99 @23c4^16  v186 @23c16  v157 @23c16  v128 @23c16  v99 @23c4^16  v186 @23c16  v157 @23c16  v128 @23c16  v99 @23c4^16  v186 @23c16  v157 @23c16
  v128 @23c16  v99 @23c8^16^32@11 ("CLava Bubble.brr", $02) $ED $7F $E0  v255 c4^8^32c4 v136 f+8^32v255 f+8@15 ("CLava Splatter.brr", $02) $ED $7F $E0  c4^16@11 ("CLava Bubble.brr", $01) $ED $7F $E0  c4^32 v200 a8 v136 d+16
^8^32<v255 g+8f4^8^32>d4 v136 a+8^32v255 a+8@15 ("CLava Splatter.brr", $02) $ED $7F $E0  <g+4^16@11 ("CLava Bubble.brr", $02) $ED $7F $E0  g+4^32 v200 o4c+8 v136 <g16


#4
r4^32@11 ("CLava Bubble.brr", $02) $ED $7F $E0  o2v255 f4^8^32>d4 v136 a+8^32v255 a+8@15 ("CLava Splatter.brr", $02) $ED $7F $E0  <g+4^16@11 ("CLava Bubble.brr", $02) $ED $7F $E0  g+4^32 v200 o4c+8 v136 <g16 v255
@11 y11 ("CChoir.brr", $06) $ED $24 $C5 $EE $10 >a1^1
/@11 y10 ("CLava Bubble.brr", $02) $ED $7F $E0  o2v255 (3)
(3)
>@30v235g2^4^8g16f16a+2^4a+16a+16g16f16
>c1d2d4d4
@31y13v255<g2^4^8g16f16a+2^4a+16a+16g16f16
>c1d2d4d4
@11 y11("CChoir.brr", $06) $ED $24 $C5 $EE $10 a1^1
b1^2>v255 c+2
@30 v225 y8 <c1<a+1
g+1g2a+4>c4
c1<a+1
g+2a+2>c1
@11 y11 v255 ("CChoir.brr", $06) $ED $24 $C5 $EE $10 a1^1
b1^2>v255 c+2
                

#amk=1
