#amk 2

#halvetempo
#SPC
{
	#title "One Last Hope"
	#author "RednGreen"
	#comment "Final Level theme"
	#game "SMW Central Production 2"
}	

#samples
{
	#default
	#AMM
	#sky_and_dream
	"CCymbal.brr"
	"oct_flute.brr"
}

#instruments
{
"CCymbal.brr"	$AF $4E $00 $03 $C0 ;@30
"oct_flute.brr"	$FD $EA $00 $03 $00 ;@31
@9				$EE $6F $00 $02 $A6 ;@32
@8				$8F $EF $00 $1E $00 ;@33
@22				$00 $00 $30 $06 $ED ;@34
}

$EF $FF $F0 $10
$F1 $06 $50 $01

#0 w160 t57
q7f v130 y10
$E8 $FF $F5
/
@33
[q7fo1a16q7c>a16g16q7ba=10r=02]24
(5)[q7fo1a16q7c>a16g16q7ba16]30
q7fo1a16q7c>a16g16q7be16
q7f<a16q7c>a16>$F4 $01c32d64$F4 $01^64q7ba16
(5)4
(6)[q7fo1g16q7c>g16f16q7bg16]4q7fo2d16q7c>d16c16q7bd16
(7)[q7f<d16q7c>d16c16q7bd16]7q7fo1a16q7c>a16g16q7ba16(5)(5)(5)(6)(6)(6)(6)q7fd16q7c>d16c16q7bd16(7)(7)(7)(7)(7)(7)(7)< $ED $0E $E8 q7fa1g1f1^1(5)(5)(5)(5)(6)(6)(6)(6)
@33[q7f<f16q7c>f16e16q7bf16]8
(5)(5)(5)(5)(6)(6)(6)(6)q7fd16q7c>d16c16q7bd16(7)(7)(7)(7)(7)(7)(7)q7fo1a16q7c>a16g16q7ba16(5)(5)(5)(6)(6)(6)(6)q7fd16q7c>d16c16q7bd16(7)(7)(7)(7)(7)
q7fo2d16q7c>d16c16q7b<a16
q7fo2d16<a16q7d>>d+16$ED $0F $E0 $F4 $01 d16$DD $02 $0A <c
@33q7fc32$F4 $01^32q7c>c16<a+16q7b>c16
[q7f<c16q7c>c16<a+16q7b>c16]7
q7fo1g16q7c>g16f16q7bg16(6)(6)(6)(6)(6)(6)(6)
[q7f<a+16q7c>a+16g+16q7ba+16]8
[q7f<f16q7c>f16d+16q7bf16]8
[q7f<g+16q7c>g+16f+16q7bg+16]8
[q7fd+16q7c>d+16c+16q7bd+16<]7 q7fd+16q7c>d+16c+16q7bd+16
(1)[q7f@21b16@34g+16@34g+16@21b16@29e16@34g+16@34g+16@21b16@34g+16@29e16@34g+16@21b16@29e16@34g+16@21b16@29e16]
(3)[q7f@21b16@34g+16@34g+16@21b16@29e16@34g+16@34g+16@21b32@21b32@29e16@29e16@21b16@21b16@29e16@21b16@29e32@29e32@29e32@29e32];

#1 
$F4 $02 /
@11 y15
v160o4
^1^1
$ED $0A $E6 $DE $18 $05 $20
e1^1
$DD $10 $FF $A7
$DC $FF $05
$ED $0A $E9^1^1o3y10   v200 (1)(2)[@21b16@34g+16@34g+16@21b16@29e16@34g+16@34g+16@21b16@21b16@29e16@34g+16@21b16@29e16@21b16@21b16@29e16]
y0@11o4v80
$ED $09 $E0
$E8 $C0 $8C
d1^1^2
$DD $06 $10 $A8 
^1$E8 $C0 $20
^1r1^2
$ED $09 $E0 $DF
v130o4[e1d1f+1f1]2
$DE $18 $05 $20
[e1d1c1^1]3
e1d1c1^2..r16
v125
r16
c1^1<a+1^1>c+1^1c1^1<b1^1a+1^1$DC $90 $14^1^1 $DD $00 $FF $A0^1^1;

#2 @11 
y15v160o4
r1^1
$ED $0A $E6 $DE $18 $05 $20
c1^1
$DD $10 $FF $A3
$DC $FF $05
^1^1
r1^1
@11 o4 v80 
$ED $09 $E0
$E8 $C0 $8C
y20
g1^1^2
$DD $06 $10 $AD 
^1$E8 $C0 $20
o4^1^1^2
$ED $09 $E0 $DF 
v130 o4c1<b1a1a1>c1<b1a1a1
$DE $18 $05 $20
[a1g1f1^1]3
a1g1f1^2..
v175 y10 @31  o5
r8
$ED $7D $EA 
$DE $18 $06 $40 d2 $DD $00 $06 $B3 ^2d4c4<g4>c4<a+2^4 a4 g1>
;a8 $DD $24 $0c $A7 ^8 f2 $DD $00 $0C $AB ^2
c2 $DD $00 $06 $B1 ^2 c4<a+4f4a+4g+2^4g4f1
a+2 $DD $00 $06 $AF ^2a+4g+4d+4f4g2^4a+4>v165d+1[^1]50;
[^1]50         ;

#3 @32 
y10r1[^1]4
v70$E8 $C0 $C0[q7f@29c16q7b@29c16@29c16q7c@29c16]4
(9)[q7f@30h0y10v220$DFo3g+1]r1  v200o2(1)(3)(1)
(2)
(1)
(3)         
v180@1$ED $0F $E0o4
[[(10)[a16b16>c16e16a16e16c16<b16]
(10)
(11)[g16a16b16>d16g16d16<b16a16]
(11)
(12)[d16e16f+16a16>d16<a16f+16e16]
(12)
(13)[d16e16f16a16>d16<a16f16e16](13)]]2
;(10)(10)(11)(11)(12)(12)(13)(13)
$F4 $01 o2a16b16>c16e16a16b16>c16e16
v150o3a16b16>c16e16a16b16>c16e16
v100o4a16b16>c16e16a16b16>c16e16
v100o3a16b16>c16e16a16b16>c16e16
$F4 $01 
r1<v80f32r32v85f16>v90f32r32<v100f32r32v110f16>v120f32r32<v125f32r32v130f16>v140f32r32<v150f32r32v160f16>v170f32r32<v180f32r32>v190f32r32<v200f32r32>v210f32r32o4   (1)     
(2)   (1)(2)(1)(2)(1)(2)(1)(2)(1)(3)
v165y13@1
;$DE $18 $06 $20 >>d2 $DD $00 $06 $BF ^2d4c4<g4>c4<a+2^4a4g1>c+1c4<a+4f4a+4g+2^4g4f1b1a+4g+4d+4f4g2^4a+4>d+1[^1]50;
v150 @11 o3 $ED $09 $E0 g1^1g1^1a+1^1g+1^1g+1^1$ED $0B $ECg1^1^1^1
[r1]99

#4 @32
$EE $00
[r1]10
@30 h0 v220 y10 o3g+1^1
r1^1
q7f@30h0y10v220$DFo3g+2
@32
o5y5v140c16<b16a16e16>y15v115c16<b16a16e16y5v220b16a16g16d16y15v170b16a16g16d16y5v140b16a16g16d16y15v110b16a16g16d16y5v220a16f+16e16d16y15v170a16f+16e16d16y5v140a16f+16e16d16y15v110a16f+16e16d16y5v220a16f16e16d16y15v170a16f16e16d16y5v140a16f16e16d16y15v110a16f16e16d16>
@32o5y5v220
(15)[e16d16c16<a16>]y15v170(15)y5v140(15)y15v115(15)y5
v220 (16)[d16c16<b16g16>]y15v170(16)y5v140(16)y15v115(16)y5
v220 (17)[d16<a16g16f+16>]y15v170(17)y5v140(17)y15v115(17)y5
v220 (18)[d16<a16g16f16>]y15v170(18)y5v140(18)y15v115d16<a16g16f16
r16r32^64^128 $F4 $01 $EE $0A y10,1,0 h0
@1 $ED $7F $E0 v100 o2a16b16>c16e16a16b16>c16e16
v70o3a16b16>c16e16a16b16>c16e16
v60o4a16b16>c16e16a16b16>c16e16
v50o3a16b16>c16e16a16b16>c16e16
$EE $00
$F4 $01
r128r128
r1
r2r4r8
@1v135o4 $ED $09 $E0 [c1<b1a1^1>]2
c1<b1a1^2..r8.
v120y10 @1 @31 <r16r32r64r128 $EE $0A
$ED $7D $EA 
;$FA $00 $10
$DE $18 $06 $20 o5 d+1d4c4<g4>c4<a+2^4a4g1>c+1c4<a+4f4a+4g+2^4g4f1b1a+4g+4d+4f4g2^4a+4>d+1
;g1f4d+4c4d+4d2^4c4<a+1>f1d+4c+4<a+4>c+4c2^4<a+4g+1>d+1c+4<b4g4g+4a+2^4>d+4g1[r1]50;
[r1]99

#5 @32
r1[^1]13o5
y5v220c16<b16a16e16
>y15v170c16<b16a16e16
[r16]8
  y10 v200       (2)(1)(2)(1)(2)(1)(3)
$ED $09 $E0
@1v135o4 $ED $09 $E0 c1<b1a1^1>
;@32 y10
;v160c16<b16a16e16>v120c16<b16a16e16>v90c16<b16a16e16>v70c16<b16a16e16
;v160b16a16g16d16v120b16a16g16d16v90b16a16g16d16v70b16a16g16d16
;v160a16f+16e16d16v120a16f+16e16d16v90a16f+16e16d16v70a16f+16e16d16
;v160a16f16e16d16v120a16f16e16d16v90a16f16e16d16v70a16f16e16d16>
o4
(9)r1^2^4^8^1
$ED $0F $E0
y10@1
@6 ;("double_octave_flute.brr", $03)
v157 o5
(70)[@6 $ED $7D $EA 
$DE $18 $06 $20
$ED $7D $EC $DE $0C $06 $40 q7fc16d16
@6 $ED $7D $EA  d4 $DD $00 $06 $B4 ^8> @6 $ED $7D $EA  q7dc4^8<$f4 $01 @6 $ED $7D $EA  q7fe8^16f32e64 $F4 $01 ^64  c4 $DD $00 $06 $B2 ^8c4^8<b4b16>c16<b16a4^16q7d>b16>c16q7e<b16a4^16q7fg16a16f16g16e16f16d16e16c16d16<b16>c16<a16b16g16a16
e4^8>c4^8e8^16 $DD $0C $0C $B0 ^16c4 $DD $00 $06 $B2 ^8g4^8]
$ED $7D $EC b4q7e>c1q7dd2...r16  o4v240(1)(2)(1)(2)(1)(2)(1)(2)(1)(2)(1)(3)
[^1]50;

#6 @32 
^1[^1]9 v255 
r2
<r1 ^2^4^4^2  ^1o2v200(1)
[r1]7
[r1]8
r8 
@6 ;("double_octave_flute.brr", $03)
v92 o5
(70)
$ED $7D $EC b4>c1d2^4
(9)
q7d
 @4 $ED $0F $E0  v180 o4y5v110c32r32v125c32r32y15v140 @4 $ED $0F $E0 c16r16y5v150 @4 $ED $0F $E0 c8r16y5v165 @4 $ED $0F $E0 c16r16y5v130c32r32y15v170c32r16^32v100c16v135c32r32v170c32r32v120c32r1^32 $ED $0F $E0  o3y5v110g32r32v125g32r32y15v140g16r16y5v150g8r16y5v165g16r16y5v130g32r32y15v170g32r16^32v100g16v135g32r32v170g32r32v120g32r1^32  $ED $0F $E0   o3y5v110a+32r32v125a+32r32y15v140a+16r16y5v150a+8r16y5v165a+16r16y5v130a+32r32y15v170a+32r16^32v100a+16v135a+32r32v170a+32r32v120a+32r1^32   $ED $0F $E0     o3y5v110f32r32v125f32r32y15v140f16r16y5v150f8r16y5v165f16r16y5v130f32r32y15v170f32r16^32v100f16v135f32r32v170f32r32v120f32r1^32 o3y5v110g+32r32v125g+32r32y15v140g+16r16y5v150g+8r16y5v165g+16r16y5v130g+32r32y15v170g+32r16^32v100g+16v135g+32r32v170g+32r32v120g+32r1^32     $ED $0F $E0      o3y5v110a+32r32v125a+32r32y15v140a+16r16y5v150a+8r16y5v165a+16r16y5v130a+32r32y15v170a+32r16^32v100a+16v135a+32r32v170a+32r32v120a+32q7fr32(9)^1^1      
;@1 $ED $7C $EA
;o3 g1^1g1^1a+1^1g+1^1d+1^1   $ED $0B $EC   d+1^1^1^1$DD $00 $FF $99^1^1;
[r1]99

#7
@2 ;$ED $7D $F3 
v160
o5 q4c
[r1]38
[@2y10v160g16<y8v93g16 @2 y10v160g16>y12v93g16]16
[y10v160a+16<y8v93a+16y10v160a+16>y12v93a+16]8
[y10v160g+16<y8v93g+16y10v160g+16>y12v93g+16]16
[y10v160a+16<y8v93a+16y10v160a+16>y12v93a+16]8
[r1]99                